\relax 
\@writefile{toc}{\contentsline {section}{\numberline {1}Project description}{1}}
\@writefile{toc}{\contentsline {section}{\numberline {2}Proposed tasks}{1}}
\citation{AISavoidance}
\citation{*}
\@writefile{toc}{\contentsline {section}{\numberline {3}Project deliverables}{2}}
\bibstyle{IEEEannotU}
\bibdata{mmp}
\bibcite{AISavoidance}{1}
\bibcite{colinRaycast}{2}
\bibcite{StelzerReactive}{3}
\bibcite{colregsMicheal}{4}
\bibcite{StelzerAutoNav}{5}
\@writefile{toc}{\contentsline {section}{Initial Annotated Bibliography}{3}}
