\begin{thebibliography}{1}
\providecommand{\url}[1]{#1}
\csname url@rmstyle\endcsname
\providecommand{\newblock}{\relax}
\providecommand{\bibinfo}[2]{#2}
\providecommand\BIBentrySTDinterwordspacing{\spaceskip=0pt\relax}
\providecommand\BIBentryALTinterwordstretchfactor{4}
\providecommand\BIBentryALTinterwordspacing{\spaceskip=\fontdimen2\font plus
\BIBentryALTinterwordstretchfactor\fontdimen3\font minus
  \fontdimen4\font\relax}
\providecommand\BIBforeignlanguage[2]{{%
\expandafter\ifx\csname l@#1\endcsname\relax
\typeout{** WARNING: IEEEtran.bst: No hyphenation pattern has been}%
\typeout{** loaded for the language `#1'. Using the pattern for}%
\typeout{** the default language instead.}%
\else
\language=\csname l@#1\endcsname
\fi
#2}}

\bibitem{AISavoidance}
J.~C. Alves and N.~A. Cruz, ``{AIS-Enabled Collision Avoidance Strategies for
  Autonomous Sailboats},'' in \emph{Proceedings of the 8th International
  Conference on Robotic Sailing}.\hskip 1em plus 0.5em minus 0.4em\relax
  Springer, 2015, pp. 77--387.


\bibitem{colinRaycast}
C.~Sauze and M.~Neal, ``{A Raycast Approach to Collision Avoidance in Sailing
  Robots},'' in \emph{Proceedings of the 3rd International Conference on
  Robotic Sailing}.\hskip 1em plus 0.5em minus 0.4em\relax Springer, 2010.


\bibitem{StelzerReactive}
R.~Stelzer, K.~Jafarmadar, H.~Hassler, and R.~Charwot, ``{A Reactive Approach
  to Obstacle Avoidance in Autonomous Sailing},'' in \emph{Proceedings of the
  3rd International Conference on Robotic Sailing}.\hskip 1em plus 0.5em minus
  0.4em\relax Springer, 2010, pp. {34--40}.


\bibitem{colregsMicheal}
J.~A.~C. Michael R.~Benjamin, ``{COLREGS-Based Navigation of Autonomous Marine
  Vehicles},'' in \emph{IEEE Proceedings of AUV-2004}, 2004.


\bibitem{StelzerAutoNav}
S.~Roland, ``{Autonomous Sailboat Navigation – Novel Algorithms and
  Experimental Demonstration},''
  \url{http://www.roboat.at/fileadmin/user_upload/_temp_/Roboat/Publications/Stelzer2012.pdf},
  2012, pHd Thesis, Centre for Computational Intelligence, De Montfort
  University, UK.


\end{thebibliography}
